module gitlab.com/saharacorp/wkws

go 1.18

require github.com/labstack/echo/v4 v4.7.2

require (
	github.com/golang-jwt/jwt v3.2.2+incompatible // indirect
	github.com/labstack/gommon v0.3.1 // indirect
	github.com/mattn/go-colorable v0.1.12 // indirect
	github.com/mattn/go-isatty v0.0.14 // indirect
	github.com/valyala/bytebufferpool v1.0.0 // indirect
	github.com/valyala/fasttemplate v1.2.1 // indirect
	golang.org/x/crypto v0.0.0-20220722155217-630584e8d5aa // indirect
	golang.org/x/net v0.0.0-20220728211354-c7608f3a8462 // indirect
	golang.org/x/sys v0.0.0-20220731174439-a90be440212d // indirect
	golang.org/x/text v0.3.7 // indirect
	golang.org/x/time v0.0.0-20220722155302-e5dcc9cfc0b9 // indirect
)
